{
  "name": "hhg-aptitude",
  "version": "0.1.0",
  "author": "Sebastian Rettenberger",
  "summary": "Installs aptitude",
  "license": "Apache-2.0",
  "source": "https://gitlab.lrz.de/hhg-puppet/hhg-aptitude.git",
  "project_page": "https://gitlab.lrz.de/hhg-puppet/hhg-aptitude",
  "issues_url": "https://gitlab.lrz.de/hhg-puppet/hhg-aptitude/issues",
  "operatingsystem_support": [
    {
      "operatingsystem": "Debian",
      "operatingsystemrelease": [
        "8"
      ]
    }
  ],
  "dependencies": [
  ],
  "data_provider": null
}

